Retail Project
…
fit %>%
  select(arima3) %>% 
  forecast(h = "2 years") %>% 
  hilo(level = 95)%>% 
  mutate(
    lower = `95%`$lower,
    upper = `95%`$upper
  )

## # A tsibble: 24 x 7 [1M]
## # Key:       .model [1]
##    .model    Month        Turnover .mean                   `95%` lower upper
##    <chr>     <mth>          <dist> <dbl>                  <hilo> <dbl> <dbl>
##  1 arima3 2017 Jan t(N(16, 0.021))  865. [814.0918,  917.5275]95  814.  918.
##  2 arima3 2017 Feb t(N(16, 0.029))  791. [735.2552,  848.4028]95  735.  848.
##  3 arima3 2017 Mar t(N(16, 0.037))  838. [772.5424,  905.8055]95  773.  906.
##  4 arima3 2017 Apr t(N(16, 0.046))  799. [729.1572,  871.8678]95  729.  872.
##  5 arima3 2017 May t(N(16, 0.053))  848. [769.2964,  930.9990]95  769.  931.
##  6 arima3 2017 Jun t(N(16, 0.061))  890. [802.7193,  982.6596]95  803.  983.
##  7 arima3 2017 Jul  t(N(16, 0.07))  884. [791.3824,  982.5259]95  791.  983.
##  8 arima3 2017 Aug t(N(16, 0.078))  897. [798.7747, 1002.4907]95  799. 1002.
##  9 arima3 2017 Sep t(N(17, 0.086))  900. [796.7555, 1011.4128]95  797. 1011.
## 10 arima3 2017 Oct t(N(17, 0.094))  926. [815.2083, 1045.2261]95  815. 1045.
## #  with 14 more rows
…
fit2 %>%
  select(auto_ets) %>% 
  forecast(h = "2 years") %>% 
  hilo(level = 95)%>% 
  mutate(
    lower = `95%`$lower,
    upper = `95%`$upper
  )

## # A tsibble: 24 x 7 [1M]
## # Key:       .model [1]
##    .model      Month        Turnover .mean                   `95%` lower upper
##    <chr>       <mth>          <dist> <dbl>                  <hilo> <dbl> <dbl>
##  1 auto_ets 2017 Jan t(N(16, 0.024))  874. [818.8907,  930.2978]95  819.  930.
##  2 auto_ets 2017 Feb t(N(16, 0.032))  798. [739.8693,  859.1092]95  740.  859.
##  3 auto_ets 2017 Mar  t(N(16, 0.04))  856. [787.2775,  927.3616]95  787.  927.
##  4 auto_ets 2017 Apr t(N(16, 0.047))  817. [745.2571,  892.9936]95  745.  893.
##  5 auto_ets 2017 May t(N(16, 0.055))  868. [787.2388,  954.1340]95  787.  954.
##  6 auto_ets 2017 Jun t(N(17, 0.062))  901. [811.7522,  995.0040]95  812.  995.
##  7 auto_ets 2017 Jul  t(N(16, 0.07))  898. [803.6851,  997.3186]95  804.  997.
##  8 auto_ets 2017 Aug t(N(17, 0.078))  903. [803.8540, 1008.7467]95  804. 1009.
##  9 auto_ets 2017 Sep t(N(17, 0.085))  902. [798.7431, 1013.3917]95  799. 1013.
## 10 auto_ets 2017 Oct t(N(17, 0.093))  929. [818.7392, 1047.9253]95  819. 1048.
## #  with 14 more rows
…
fit_final %>%
  select(arima3_new) %>% 
  forecast(h = "2 years") %>% 
  hilo(level = 80)%>% 
  mutate(
    lower = `80%`$lower,
    upper = `80%`$upper
  )

## # A tsibble: 24 x 7 [1M]
## # Key:       .model [1]
##    .model        Month        Turnover .mean                   `80%` lower upper
##    <chr>         <mth>          <dist> <dbl>                  <hilo> <dbl> <dbl>
##  1 arima3_new 2019 Jan t(N(17, 0.021))  924. [888.7578,  959.4190]80  889.  959.
##  2 arima3_new 2019 Feb t(N(16, 0.028))  820. [783.0061,  858.2006]80  783.  858.
##  3 arima3_new 2019 Mar t(N(16, 0.036))  873. [828.6925,  917.4320]80  829.  917.
##  4 arima3_new 2019 Apr t(N(16, 0.044))  839. [791.5453,  887.0893]80  792.  887.
##  5 arima3_new 2019 May t(N(16, 0.052))  883. [830.1599,  937.5477]80  830.  938.
##  6 arima3_new 2019 Jun t(N(17, 0.059))  939. [878.8299,  999.4318]80  879.  999.
##  7 arima3_new 2019 Jul t(N(17, 0.068))  932. [868.6297,  996.6706]80  869.  997.
##  8 arima3_new 2019 Aug t(N(17, 0.075))  934. [867.5636, 1002.5978]80  868. 1003.
##  9 arima3_new 2019 Sep t(N(17, 0.083))  932. [861.6819, 1003.2950]80  862. 1003.
## 10 arima3_new 2019 Oct t(N(17, 0.091))  972. [896.4304, 1049.8175]80  896. 1050.
## #  with 14 more rows
…
fit_final %>%
  select(auto_ets_new) %>% 
  forecast(h = "2 years") %>% 
  hilo(level = 80)%>% 
  mutate(
    lower = `80%`$lower,
    upper = `80%`$upper
  )

## # A tsibble: 24 x 7 [1M]
## # Key:       .model [1]
##    .model        Month        Turnover .mean                   `80%` lower upper
##    <chr>         <mth>          <dist> <dbl>                  <hilo> <dbl> <dbl>
##  1 auto_ets_ 2019 Jan t(N(17, 0.024))  922. [884.7427,  960.0158]80  885.  960.
##  2 auto_ets_ 2019 Feb t(N(16, 0.031))  826. [787.5433,  865.9677]80  788.  866.
##  3 auto_ets_ 2019 Mar t(N(16, 0.037))  893. [847.1576,  939.1387]80  847.  939.
##  4 auto_ets_ 2019 Apr t(N(16, 0.044))  860. [812.0793,  909.2428]80  812.  909.
##  5 auto_ets_ 2019 May t(N(17, 0.051))  911. [856.5346,  965.5569]80  857.  966.
##  6 auto_ets_ 2019 Jun t(N(17, 0.058))  969. [908.3202, 1030.0244]80  908. 1030.
##  7 auto_ets_ 2019 Jul t(N(17, 0.064))  955. [892.1235, 1019.4034]80  892. 1019.
##  8 auto_ets_ 2019 Aug t(N(17, 0.071))  960. [893.9186, 1028.2941]80  894. 1028.
##  9 auto_ets_ 2019 Sep t(N(17, 0.078))  961. [891.0440, 1031.6925]80  891. 1032.
## 10 auto_ets_ 2019 Oct t(N(17, 0.085))  988. [914.2396, 1064.1204]80  914. 1064.
## #  with 14 more rows
…
